{
  "birds": [
    {
      "id": 1,
      "attributes": [
        {
          "author": "Planettrekker",
          "country": "UK",
          "born": "12.12.1988"
        }
      ],
      "pic": "./images/Black-eared Miner.PNG",
      "commonName": "Black-eared Miner",
      "commonwealthStatus": "Critically Endangered",
      "scientificName": "Manorina melanotis"
    },
    {
      "id": 5,
      "attributes": [
        {
          "author": "David Cook",
          "country": "US",
          "born": "10.01.1981"
        },
        {
          "author": "Thomas Berger",
          "country": "DE",
          "born": "02.02.1985"
        }
      ],
      "pic": "./images/Eastern Bristlebird.jpg",
      "commonName": "Eastern Bristlebird",
      "commonwealthStatus": "Endangered",
      "scientificName": "Dasyornis brachypterus"
    },
    {
      "id": 7,
      "attributes": [
        {
          "author": "Julian Robinson",
          "country": "UK",
          "born": "21.03.1977"
        },
        {
          "author": "Tobias Hayashi",
          "country": "JP",
          "born": "19.05.1992"
        },
        {
          "author": "Oliver Savic",
          "country": "AT",
          "born": "02.06.1999"
        }
      ],
      "pic": "./images/Swift Parrot.jpg",
      "commonName": "Swift Parrot",
      "commonwealthStatus": "Endangered",
      "scientificName": "Lathamus discolor"
    },
    {
      "id": 11,
      "attributes": [
        {
          "author": "Oliver Dodd",
          "country": "US",
          "born": "02.04.1991"
        },
        {
          "author": "Harold Moses",
          "country": "US",
          "born": "06.11.1995"
        }
      ],
      "pic": "./images/Gould's Petrel.jpg",
      "commonName": "Southern Giant Petrel",
      "commonwealthStatus": "Endangered",
      "scientificName": "Macronectes giganteus"
    },
    {
      "id": 13,
      "attributes": [
        {
          "author": "Jim Bendon",
          "country": "US",
          "born": "16.02.1988"
        }
      ],
      "pic": "./images/Star Finch.jpg",
      "commonName": "Star Finch (eastern), Star Finch (southern)",
      "commonwealthStatus": "Presumed Extinct",
      "scientificName": "Neochmia ruficauda ruficauda"
    },
    {
      "id": 21,
      "attributes": [
        {
          "author": "Willy Wonka",
          "country": "AT",
          "born": "16.02.1982"
        }
      ],
      "pic": "./images/Gould's Petrel.jpg",
      "commonName": "Gould's Petrel",
      "commonwealthStatus": "Vulnerable",
      "scientificName": "Pterodroma leucoptera leucoptera"
    },
    {
      "id": 22,
      "attributes": [
        {
          "author": "Ron Knight",
          "country": "UK",
          "born": "09.09.1973"
        },
        {
          "author": "Wild~Life Organisation",
          "country": "UK",
          "born": "N/A"
        }
      ],
      "pic": "./images/Mallee Emu-wren.PNG",
      "commonName": "Mallee Emu-wren",
      "commonwealthStatus": "Endangered",
      "scientificName": "Stipiturus mallee"
    },
    {
      "id": 26,
      "attributes": [
        {
          "author": "Wild~Life Organisation",
          "country": "UK",
          "born": "N/A"
        }
      ],
      "pic": "./images/Coxen's Fig-Parrot.PNG",
      "commonName": "Coxen's Fig-Parrot",
      "commonwealthStatus": "Critically Endangered",
      "scientificName": "Cyclopsitta diophthalma coxeni"
    },
    {
      "id": 27,
      "attributes": [
        {
          "author": "Jon Irvine",
          "country": "US",
          "born": "01.04.1968"
        },
        {
          "author": "Wild~Life Organisation",
          "country": "UK",
          "born": "N/A"
        }
      ],
      "pic": "./images/Chatham Albatross.PNG",
      "commonName": "Chatham Albatross",
      "commonwealthStatus": "Endangered",
      "scientificName": "Thalassarche eremita"
    },
    {
      "id": 31,
      "attributes": [
        {
          "author": "Karl Baumgartner",
          "country": "AT",
          "born": "14.07.1964"
        }
      ],
      "pic": "./images/Northern Royal Albatross.jpg",
      "commonName": "Northern Royal Albatross",
      "commonwealthStatus": "Endangered",
      "scientificName": "Diomedea epomophora sanfordi"
    }
  ]
}
